{
  "project_info": {
    "project_number": "25224399969",
    "firebase_url": "https://petlost-uninsubria-pdm2021-default-rtdb.firebaseio.com",
    "project_id": "petlost-uninsubria-pdm2021",
    "storage_bucket": "petlost-uninsubria-pdm2021.appspot.com"
  },
  "client": [
    {
      "client_info": {
        "mobilesdk_app_id": "1:25224399969:android:a7b6aeb2a6961340172e20",
        "android_client_info": {
          "package_name": "it.pdm.petlost"
        }
      },
      "oauth_client": [
        {
          "client_id": "25224399969-m3gqq6546l7lc463mping9s444utpup9.apps.googleusercontent.com",
          "client_type": 3
        }
      ],
      "api_key": [
        {
          "current_key": "AIzaSyC409edf4pPqnjV2l6yKxiHeCQJ9sof3yk"
        }
      ],
      "services": {
        "appinvite_service": {
          "other_platform_oauth_client": [
            {
              "client_id": "25224399969-m3gqq6546l7lc463mping9s444utpup9.apps.googleusercontent.com",
              "client_type": 3
            }
          ]
        }
      }
    }
  ],
  "configuration_version": "1"
}